[
  {
    "directory": "/home/ivan/Development/C-C++/meson/builddir",
    "command": "cc -Idemo@exe -I. -I.. -I/usr/include/at-spi2-atk/2.0 -I/usr/include/at-spi-2.0 -I/usr/include/dbus-1.0 -I/usr/lib/x86_64-linux-gnu/dbus-1.0/include -I/usr/include/gtk-3.0 -I/usr/include/gio-unix-2.0 -I/usr/include/pango-1.0 -I/usr/include/fribidi -I/usr/include/harfbuzz -I/usr/include/atk-1.0 -I/usr/include/cairo -I/usr/include/pixman-1 -I/usr/include/uuid -I/usr/include/freetype2 -I/usr/include/libpng16 -I/usr/include/gdk-pixbuf-2.0 -I/usr/include/libmount -I/usr/include/blkid -I/usr/include/glib-2.0 -I/usr/lib/x86_64-linux-gnu/glib-2.0/include -fdiagnostics-color=always -pipe -D_FILE_OFFSET_BITS=64 -Wall -Winvalid-pch -g -pthread -MD -MQ 'demo@exe/main.c.o' -MF 'demo@exe/main.c.o.d' -o 'demo@exe/main.c.o' -c ../main.c",
    "file": "../main.c",
    "output": "demo@exe/main.c.o"
  }
]
